%% DO NOT EDIT this file manually; it is automatically
%% generated from LSR http://lsr.di.unimi.it
%% Make any changes in LSR itself, or in Documentation/snippets/new/ ,
%% and then run scripts/auxiliar/makelsr.py
%%
%% This file is in the public domain.
\version "2.23.9"

\header {
  lsrtags = "staff-notation, tweaks-and-overrides"

  texidoc = "
If there is only one staff in one of the staff types @code{ChoirStaff}
or @code{StaffGroup}, by default the bracket and the starting bar line
will not be displayed.  This can be changed by overriding
@code{collapse-height} to set its value to be less than the number of
staff lines in the staff.

Note that in contexts such as @code{PianoStaff} and @code{GrandStaff}
where the systems begin with a brace instead of a bracket, another
property has to be set, as shown on the second system in the example.

"
  doctitle = "Display bracket with only one staff in a system"
} % begin verbatim

\score {
  \new StaffGroup <<
    % Must be lower than the actual number of staff lines
    \override StaffGroup.SystemStartBracket.collapse-height = #4
    \override Score.SystemStartBar.collapse-height = #4
    \new Staff {
      c'1
    }
  >>
}
\score {
  \new PianoStaff <<
    \override PianoStaff.SystemStartBrace.collapse-height = #4
    \override Score.SystemStartBar.collapse-height = #4
    \new Staff {
      c'1
    }
  >>
}
